{
    "phoneContact": 3101239939,
    "mainCompany": "Fiat-Chrysler Automobiles",
    "bankrupcy": false,
    "subsidiaries": [
        "Fiat",
        "Chrysler",
        "Peugeot",
        "Jeep",
        "Dodge",
        "Citroen",
        "Mopar",
        "Ram",
        "Opel",
        "Maserati",
        "DS",
        "Alfa Romeo",
        "Vauxhall"
    ],
    "basicHumanRights": null,
    "cars": [
                {
                    "serialNum": 5501771,
                    "brand": "Fiat",
                    "model": "500c",
                    "electric": true,
                    "colors": [
                        "red",
                        "blue",
                        "black"
                    ],
                    "date": {
                        "year": 2021,
                        "month": 6,
                        "day": 13
                    },
                    "owner": null
                },
            
                {
                    "serialNum": 4421552,
                    "brand": "Jeep",
                    "model": "Good one",
                    "electric": false,
                    "colors": [
                        "green",
                        "black",
                        "white"
                    ],
                    "date": {
                        "year": 2020,
                        "month": 8,
                        "day": 15
                    },
                    "owner": "John Doe"
                },
            
                {
                    "serialNum": 3478192,
                    "brand": "Peugeot",
                    "model": "French",
                    "electric": true,
                    "colors": [
                        "blue",
                        "grey",
                        "black"
                    ],
                    "date": {
                        "year": 2019,
                        "month": 5,
                        "day": 10
                    },
                    "owner": "Franca Mente"
                },
            
                {
                    "serialNum": 6863242,
                    "brand": "Alfa Romeo",
                    "model": "Giulia",
                    "electric": false,
                    "colors": [
                        "red",
                        "white",
                        "black"
                    ],
                    "date": {
                        "year": 2019,
                        "month": 11,
                        "day": 25
                    },
                    "owner": "Poe Ratcho"
                },
            
                {
                    "serialNum": 5501775,
                    "brand": "Maserati",
                    "model": "Pretty",
                    "electric": false,
                    "colors": [
                        "black",
                        "blue",
                        "silver"
                    ],
                    "date": {
                        "year": 2023,
                        "month": 4,
                        "day": 2
                    },
                    "owner": null
                }
            ]
}